<?xml version="1.0" encoding="UTF-8"?><svg xmlns="http://www.w3.org/2000/svg" xmlns:xlink="http://www.w3.org/1999/xlink" stroke-dasharray="none" shape-rendering="auto" font-family="'Dialog'" width="466" text-rendering="auto" fill-opacity="1" contentScriptType="text/ecmascript" color-interpolation="auto" color-rendering="auto" preserveAspectRatio="xMidYMid meet" font-size="12" viewBox="0 0 466 507" fill="black" stroke="black" image-rendering="auto" stroke-miterlimit="10" zoomAndPan="magnify" version="1.0" stroke-linecap="square" stroke-linejoin="miter" contentStyleType="text/css" font-style="normal" height="507" stroke-width="1" stroke-dashoffset="0" font-weight="normal" stroke-opacity="1">
<!--Generated by the Batik Graphics2D SVG Generator-->
<defs id="genericDefs"/>
<g>
<defs id="defs1">
<linearGradient x1="10" x2="10" y1="10" gradientUnits="userSpaceOnUse" y2="122" xlink:type="simple" xlink:actuate="onLoad" id="linearGradient1" xlink:show="other" spreadMethod="pad">
<stop stop-opacity="1" stop-color="white" offset="0%"/>
<stop stop-opacity="1" stop-color="rgb(195,215,221)" offset="100%"/>
</linearGradient>
<linearGradient x1="276" x2="276" y1="10" gradientUnits="userSpaceOnUse" y2="122" xlink:type="simple" xlink:actuate="onLoad" id="linearGradient2" xlink:show="other" spreadMethod="pad">
<stop stop-opacity="1" stop-color="white" offset="0%"/>
<stop stop-opacity="1" stop-color="rgb(195,215,221)" offset="100%"/>
</linearGradient>
<linearGradient x1="196" x2="196" y1="182" gradientUnits="userSpaceOnUse" y2="282" xlink:type="simple" xlink:actuate="onLoad" id="linearGradient3" xlink:show="other" spreadMethod="pad">
<stop stop-opacity="1" stop-color="white" offset="0%"/>
<stop stop-opacity="1" stop-color="rgb(195,215,221)" offset="100%"/>
</linearGradient>
<linearGradient x1="36" x2="36" y1="342" gradientUnits="userSpaceOnUse" y2="497" xlink:type="simple" xlink:actuate="onLoad" id="linearGradient4" xlink:show="other" spreadMethod="pad">
<stop stop-opacity="1" stop-color="white" offset="0%"/>
<stop stop-opacity="1" stop-color="rgb(195,209,213)" offset="100%"/>
</linearGradient>
<linearGradient x1="356" x2="356" y1="182" gradientUnits="userSpaceOnUse" y2="282" xlink:type="simple" xlink:actuate="onLoad" id="linearGradient5" xlink:show="other" spreadMethod="pad">
<stop stop-opacity="1" stop-color="white" offset="0%"/>
<stop stop-opacity="1" stop-color="rgb(195,209,213)" offset="100%"/>
</linearGradient>
<linearGradient x1="196" x2="196" y1="342" gradientUnits="userSpaceOnUse" y2="442" xlink:type="simple" xlink:actuate="onLoad" id="linearGradient6" xlink:show="other" spreadMethod="pad">
<stop stop-opacity="1" stop-color="white" offset="0%"/>
<stop stop-opacity="1" stop-color="rgb(195,215,221)" offset="100%"/>
</linearGradient>
<linearGradient x1="36" x2="36" y1="182" gradientUnits="userSpaceOnUse" y2="282" xlink:type="simple" xlink:actuate="onLoad" id="linearGradient7" xlink:show="other" spreadMethod="pad">
<stop stop-opacity="1" stop-color="white" offset="0%"/>
<stop stop-opacity="1" stop-color="rgb(195,215,221)" offset="100%"/>
</linearGradient>
<clipPath clipPathUnits="userSpaceOnUse" id="clipPath1">
<path d="M10 10 L10 121 L161 121 L161 10 Z"/>
</clipPath>
<clipPath clipPathUnits="userSpaceOnUse" id="clipPath2">
<path d="M10 12 L163 12 L163 30 L10 30 L10 12 Z"/>
</clipPath>
<clipPath clipPathUnits="userSpaceOnUse" id="clipPath3">
<path d="M77 14 L116 14 L116 27 L77 27 L77 14 Z"/>
</clipPath>
<clipPath clipPathUnits="userSpaceOnUse" id="clipPath4">
<path d="M15 31 L159 31 L159 49 L15 49 L15 31 Z"/>
</clipPath>
<clipPath clipPathUnits="userSpaceOnUse" id="clipPath5">
<path d="M34 33 L157 33 L157 46 L34 46 L34 33 Z"/>
</clipPath>
<clipPath clipPathUnits="userSpaceOnUse" id="clipPath6">
<path d="M15 47 L159 47 L159 65 L15 65 L15 47 Z"/>
</clipPath>
<clipPath clipPathUnits="userSpaceOnUse" id="clipPath7">
<path d="M34 49 L159 49 L159 62 L34 62 L34 49 Z"/>
</clipPath>
<clipPath clipPathUnits="userSpaceOnUse" id="clipPath8">
<path d="M10 29 L163 29 L163 76 L10 76 L10 29 Z"/>
</clipPath>
<clipPath clipPathUnits="userSpaceOnUse" id="clipPath9">
<path d="M10 75 L163 75 L163 99 L10 99 L10 75 Z"/>
</clipPath>
<clipPath clipPathUnits="userSpaceOnUse" id="clipPath10">
<path d="M10 98 L163 98 L163 122 L10 122 L10 98 Z"/>
</clipPath>
<clipPath clipPathUnits="userSpaceOnUse" id="clipPath11">
<path d="M9 9 L163 9 L163 123 L9 123 L9 9 Z"/>
</clipPath>
<clipPath clipPathUnits="userSpaceOnUse" id="clipPath12">
<path d="M276 10 L276 121 L375 121 L375 10 Z"/>
</clipPath>
<clipPath clipPathUnits="userSpaceOnUse" id="clipPath13">
<path d="M276 12 L377 12 L377 30 L276 30 L276 12 Z"/>
</clipPath>
<clipPath clipPathUnits="userSpaceOnUse" id="clipPath14">
<path d="M303 14 L370 14 L370 27 L303 27 L303 14 Z"/>
</clipPath>
<clipPath clipPathUnits="userSpaceOnUse" id="clipPath15">
<path d="M276 29 L377 29 L377 53 L276 53 L276 29 Z"/>
</clipPath>
<clipPath clipPathUnits="userSpaceOnUse" id="clipPath16">
<path d="M281 54 L373 54 L373 72 L281 72 L281 54 Z"/>
</clipPath>
<clipPath clipPathUnits="userSpaceOnUse" id="clipPath17">
<path d="M300 56 L348 56 L348 69 L300 69 L300 56 Z"/>
</clipPath>
<clipPath clipPathUnits="userSpaceOnUse" id="clipPath18">
<path d="M281 70 L373 70 L373 88 L281 88 L281 70 Z"/>
</clipPath>
<clipPath clipPathUnits="userSpaceOnUse" id="clipPath19">
<path d="M300 72 L351 72 L351 85 L300 85 L300 72 Z"/>
</clipPath>
<clipPath clipPathUnits="userSpaceOnUse" id="clipPath20">
<path d="M276 52 L377 52 L377 99 L276 99 L276 52 Z"/>
</clipPath>
<clipPath clipPathUnits="userSpaceOnUse" id="clipPath21">
<path d="M276 98 L377 98 L377 122 L276 122 L276 98 Z"/>
</clipPath>
<clipPath clipPathUnits="userSpaceOnUse" id="clipPath22">
<path d="M275 9 L377 9 L377 123 L275 123 L275 9 Z"/>
</clipPath>
<clipPath clipPathUnits="userSpaceOnUse" id="clipPath23">
<path d="M196 182 L196 281 L295 281 L295 182 Z"/>
</clipPath>
<clipPath clipPathUnits="userSpaceOnUse" id="clipPath24">
<path d="M196 184 L297 184 L297 202 L196 202 L196 184 Z"/>
</clipPath>
<clipPath clipPathUnits="userSpaceOnUse" id="clipPath25">
<path d="M232 186 L281 186 L281 199 L232 199 L232 186 Z"/>
</clipPath>
<clipPath clipPathUnits="userSpaceOnUse" id="clipPath26">
<path d="M196 201 L297 201 L297 229 L196 229 L196 201 Z"/>
</clipPath>
<clipPath clipPathUnits="userSpaceOnUse" id="clipPath27">
<path d="M196 228 L297 228 L297 256 L196 256 L196 228 Z"/>
</clipPath>
<clipPath clipPathUnits="userSpaceOnUse" id="clipPath28">
<path d="M196 255 L297 255 L297 283 L196 283 L196 255 Z"/>
</clipPath>
<clipPath clipPathUnits="userSpaceOnUse" id="clipPath29">
<path d="M195 181 L297 181 L297 283 L195 283 L195 181 Z"/>
</clipPath>
<clipPath clipPathUnits="userSpaceOnUse" id="clipPath30">
<path d="M36 342 L36 496 L135 496 L135 342 Z"/>
</clipPath>
<clipPath clipPathUnits="userSpaceOnUse" id="clipPath31">
<path d="M59 344 L114 344 L114 357 L59 357 L59 344 Z"/>
</clipPath>
<clipPath clipPathUnits="userSpaceOnUse" id="clipPath32">
<path d="M36 356 L137 356 L137 374 L36 374 L36 356 Z"/>
</clipPath>
<clipPath clipPathUnits="userSpaceOnUse" id="clipPath33">
<path d="M80 358 L113 358 L113 371 L80 371 L80 358 Z"/>
</clipPath>
<clipPath clipPathUnits="userSpaceOnUse" id="clipPath34">
<path d="M36 373 L137 373 L137 397 L36 397 L36 373 Z"/>
</clipPath>
<clipPath clipPathUnits="userSpaceOnUse" id="clipPath35">
<path d="M41 398 L133 398 L133 416 L41 416 L41 398 Z"/>
</clipPath>
<clipPath clipPathUnits="userSpaceOnUse" id="clipPath36">
<path d="M60 400 L94 400 L94 413 L60 413 L60 400 Z"/>
</clipPath>
<clipPath clipPathUnits="userSpaceOnUse" id="clipPath37">
<path d="M41 414 L133 414 L133 432 L41 432 L41 414 Z"/>
</clipPath>
<clipPath clipPathUnits="userSpaceOnUse" id="clipPath38">
<path d="M60 416 L103 416 L103 429 L60 429 L60 416 Z"/>
</clipPath>
<clipPath clipPathUnits="userSpaceOnUse" id="clipPath39">
<path d="M41 430 L133 430 L133 448 L41 448 L41 430 Z"/>
</clipPath>
<clipPath clipPathUnits="userSpaceOnUse" id="clipPath40">
<path d="M60 432 L103 432 L103 445 L60 445 L60 432 Z"/>
</clipPath>
<clipPath clipPathUnits="userSpaceOnUse" id="clipPath41">
<path d="M41 446 L133 446 L133 464 L41 464 L41 446 Z"/>
</clipPath>
<clipPath clipPathUnits="userSpaceOnUse" id="clipPath42">
<path d="M60 448 L95 448 L95 461 L60 461 L60 448 Z"/>
</clipPath>
<clipPath clipPathUnits="userSpaceOnUse" id="clipPath43">
<path d="M36 396 L137 396 L137 475 L36 475 L36 396 Z"/>
</clipPath>
<clipPath clipPathUnits="userSpaceOnUse" id="clipPath44">
<path d="M36 474 L137 474 L137 498 L36 498 L36 474 Z"/>
</clipPath>
<clipPath clipPathUnits="userSpaceOnUse" id="clipPath45">
<path d="M35 341 L137 341 L137 498 L35 498 L35 341 Z"/>
</clipPath>
<clipPath clipPathUnits="userSpaceOnUse" id="clipPath46">
<path d="M356 182 L356 281 L455 281 L455 182 Z"/>
</clipPath>
<clipPath clipPathUnits="userSpaceOnUse" id="clipPath47">
<path d="M379 184 L434 184 L434 197 L379 197 L379 184 Z"/>
</clipPath>
<clipPath clipPathUnits="userSpaceOnUse" id="clipPath48">
<path d="M356 196 L457 196 L457 214 L356 214 L356 196 Z"/>
</clipPath>
<clipPath clipPathUnits="userSpaceOnUse" id="clipPath49">
<path d="M395 198 L438 198 L438 211 L395 211 L395 198 Z"/>
</clipPath>
<clipPath clipPathUnits="userSpaceOnUse" id="clipPath50">
<path d="M356 213 L457 213 L457 237 L356 237 L356 213 Z"/>
</clipPath>
<clipPath clipPathUnits="userSpaceOnUse" id="clipPath51">
<path d="M356 236 L457 236 L457 260 L356 260 L356 236 Z"/>
</clipPath>
<clipPath clipPathUnits="userSpaceOnUse" id="clipPath52">
<path d="M356 259 L457 259 L457 283 L356 283 L356 259 Z"/>
</clipPath>
<clipPath clipPathUnits="userSpaceOnUse" id="clipPath53">
<path d="M355 181 L457 181 L457 283 L355 283 L355 181 Z"/>
</clipPath>
<clipPath clipPathUnits="userSpaceOnUse" id="clipPath54">
<path d="M196 342 L196 441 L295 441 L295 342 Z"/>
</clipPath>
<clipPath clipPathUnits="userSpaceOnUse" id="clipPath55">
<path d="M196 344 L297 344 L297 362 L196 362 L196 344 Z"/>
</clipPath>
<clipPath clipPathUnits="userSpaceOnUse" id="clipPath56">
<path d="M230 346 L283 346 L283 359 L230 359 L230 346 Z"/>
</clipPath>
<clipPath clipPathUnits="userSpaceOnUse" id="clipPath57">
<path d="M196 361 L297 361 L297 389 L196 389 L196 361 Z"/>
</clipPath>
<clipPath clipPathUnits="userSpaceOnUse" id="clipPath58">
<path d="M196 388 L297 388 L297 416 L196 416 L196 388 Z"/>
</clipPath>
<clipPath clipPathUnits="userSpaceOnUse" id="clipPath59">
<path d="M196 415 L297 415 L297 443 L196 443 L196 415 Z"/>
</clipPath>
<clipPath clipPathUnits="userSpaceOnUse" id="clipPath60">
<path d="M195 341 L297 341 L297 443 L195 443 L195 341 Z"/>
</clipPath>
<clipPath clipPathUnits="userSpaceOnUse" id="clipPath61">
<path d="M36 182 L36 281 L135 281 L135 182 Z"/>
</clipPath>
<clipPath clipPathUnits="userSpaceOnUse" id="clipPath62">
<path d="M36 184 L137 184 L137 202 L36 202 L36 184 Z"/>
</clipPath>
<clipPath clipPathUnits="userSpaceOnUse" id="clipPath63">
<path d="M63 186 L129 186 L129 199 L63 199 L63 186 Z"/>
</clipPath>
<clipPath clipPathUnits="userSpaceOnUse" id="clipPath64">
<path d="M36 201 L137 201 L137 229 L36 229 L36 201 Z"/>
</clipPath>
<clipPath clipPathUnits="userSpaceOnUse" id="clipPath65">
<path d="M36 228 L137 228 L137 256 L36 256 L36 228 Z"/>
</clipPath>
<clipPath clipPathUnits="userSpaceOnUse" id="clipPath66">
<path d="M36 255 L137 255 L137 283 L36 283 L36 255 Z"/>
</clipPath>
<clipPath clipPathUnits="userSpaceOnUse" id="clipPath67">
<path d="M35 181 L137 181 L137 283 L35 283 L35 181 Z"/>
</clipPath>
<clipPath clipPathUnits="userSpaceOnUse" id="clipPath68">
<path d="M-1 -1 L467 -1 L467 508 L-1 508 L-1 -1 Z"/>
</clipPath>
<clipPath clipPathUnits="userSpaceOnUse" id="clipPath69">
<path d="M248 134 L283 134 L283 147 L248 147 L248 134 Z"/>
</clipPath>
<clipPath clipPathUnits="userSpaceOnUse" id="clipPath70">
<path d="M243 166 L260 166 L260 183 L243 183 L243 166 Z"/>
</clipPath>
<clipPath clipPathUnits="userSpaceOnUse" id="clipPath71">
<path d="M235 330 L254 330 L254 343 L235 343 L235 330 Z"/>
</clipPath>
<clipPath clipPathUnits="userSpaceOnUse" id="clipPath72">
<path d="M54 140 L77 140 L77 153 L54 153 L54 140 Z"/>
</clipPath>
<clipPath clipPathUnits="userSpaceOnUse" id="clipPath73">
<path d="M74 165 L87 165 L87 183 L74 183 L74 165 Z"/>
</clipPath>
<clipPath clipPathUnits="userSpaceOnUse" id="clipPath74">
<path d="M391 166 L408 166 L408 183 L391 183 L391 166 Z"/>
</clipPath>
<clipPath clipPathUnits="userSpaceOnUse" id="clipPath75">
<path d="M107 329 L126 329 L126 343 L107 343 L107 329 Z"/>
</clipPath>
<clipPath clipPathUnits="userSpaceOnUse" id="clipPath76">
<path d="M78 325 L91 325 L91 343 L78 343 L78 325 Z"/>
</clipPath>
</defs>
<g font-size="11" fill="url(#linearGradient1)" stroke-linejoin="round" stroke="url(#linearGradient1)" stroke-width="0" stroke-miterlimit="0">
<rect x="10" y="10" clip-path="url(#clipPath1)" width="152" height="112" stroke="none"/>
<image stroke="black" width="16" xlink:show="embed" xlink:type="simple" fill="black" clip-path="url(#clipPath2)" preserveAspectRatio="none" height="16" x="59" y="13" font-size="9" xlink:href="data:image/png;base64,iVBORw0KGgoAAAANSUhEUgAAABAAAAAQCAYAAAAf8/9hAAAAr0lEQVR42mNkgIKC&#10;BUf+P3jyCchiBOL/QMgIYTFCREDg/38GOFCU4WWYkGDDyAITuP/4E8OkNDsGYkHu&#10;rINgGm7Av7//GNjZmIk2gOHff1QDwBxmJgZSAZoBjJQZwEqRC4BBzEqCC/6hh8H/&#10;//8YmJmIN+D/fyyB6NewCZwO/qORMIBIIUA2IyOmAUsrvIh2QUzndjBNeqjhiwWY&#10;qWQbsKTccwC9oKIkTJIXQOqpAgBzFjJ6SnHW0gAAAABJRU5ErkJggg==" xlink:actuate="onLoad"/>
<text x="78" font-size="9" y="24" clip-path="url(#clipPath3)" fill="black" stroke="none" xml:space="preserve">Cylinder</text>
<image stroke="black" width="16" xlink:show="embed" xlink:type="simple" fill="black" clip-path="url(#clipPath4)" preserveAspectRatio="none" height="16" x="16" y="32" font-size="9" xlink:href="data:image/png;base64,iVBORw0KGgoAAAANSUhEUgAAABAAAAAQCAYAAAAf8/9hAAABHklEQVR42mNgGAWM&#10;ICJr1qH/pGqclmYH1ssCIn7/+ccwI8OeaM0ZMw/C2WADfgIN+At0Q8rUfRDR/zC3&#10;obGBYE62E8Ov339RDfjx6w/DHyjdne2G0+aSqbsZ/gAN/I5kABOI+P4TaMA/EA2R&#10;EGSBYlYELcfBwLCq2JWBk5mBYWWRK8N/IIC74BvQ5l9A7rfff8AG/P4PcTmIYIR5&#10;A6iRrckLbvOvum0IL3z/9Res6fuPPwyRTetRnH20LRCFn2OgwzDlwhVI8AABxACg&#10;zaBAXNkQyMCIFmgggGwzuhjYAFCoupWvRDgXKZVcmRAOtxnZFSAAcgnYgKsTIxhx&#10;Bv2E8P8wxSBgJ63McOjpXdRoJARgAYYtEBmJTX2gAMNmAAC8fn+eU+XlTAAAAABJRU5ErkJggg==" xlink:actuate="onLoad"/>
<text x="35" font-size="9" y="43" clip-path="url(#clipPath5)" fill="black" stroke="none" xml:space="preserve"> + Extend: &lt;Undefined&gt; [1]</text>
<image stroke="black" width="16" xlink:show="embed" xlink:type="simple" fill="black" clip-path="url(#clipPath6)" preserveAspectRatio="none" height="16" x="16" y="48" font-size="9" xlink:href="data:image/png;base64,iVBORw0KGgoAAAANSUhEUgAAABAAAAAQCAYAAAAf8/9hAAABHklEQVR42mNgGAWM&#10;ICJr1qH/pGqclmYH1ssCIn7/+ccwI8OeaM0ZMw/C2WADfgIN+At0Q8rUfRDR/zC3&#10;obGBYE62E8Ov339RDfjx6w/DHyjdne2G0+aSqbsZ/gAN/I5kABOI+P4TaMA/EA2R&#10;EGSBYlYELcfBwLCq2JWBk5mBYWWRK8N/IIC74BvQ5l9A7rfff8AG/P4PcTmIYIR5&#10;A6iRrckLbvOvum0IL3z/9Res6fuPPwyRTetRnH20LRCFn2OgwzDlwhVI8AABxACg&#10;zaBAXNkQyMCIFmgggGwzuhjYAFCoupWvRDgXKZVcmRAOtxnZFSAAcgnYgKsTIxhx&#10;Bv2E8P8wxSBgJ63McOjpXdRoJARgAYYtEBmJTX2gAMNmAAC8fn+eU+XlTAAAAABJRU5ErkJggg==" xlink:actuate="onLoad"/>
<text x="35" font-size="9" y="59" clip-path="url(#clipPath7)" fill="black" stroke="none" xml:space="preserve"> + Retract: &lt;Undefined&gt; [1]</text>
</g>
<g font-size="11" stroke-width="1.1" stroke-linecap="butt">
<line clip-path="url(#clipPath8)" fill="none" x1="9" x2="162" y1="30" y2="30"/>
<line clip-path="url(#clipPath9)" fill="none" x1="9" x2="162" y1="76" y2="76"/>
<line clip-path="url(#clipPath10)" fill="none" x1="9" x2="162" y1="99" y2="99"/>
<rect x="10" y="10" clip-path="url(#clipPath11)" fill="none" width="151" rx="0" ry="0" height="111"/>
<rect x="276" y="10" clip-path="url(#clipPath12)" fill="url(#linearGradient2)" width="100" height="112" stroke="none"/>
<image width="16" xlink:show="embed" xlink:type="simple" clip-path="url(#clipPath13)" preserveAspectRatio="none" height="16" x="285" y="13" font-size="9" xlink:href="data:image/png;base64,iVBORw0KGgoAAAANSUhEUgAAABAAAAAQCAYAAAAf8/9hAAAAr0lEQVR42mNkgIKC&#10;BUf+P3jyCchiBOL/QMgIYTFCREDg/38GOFCU4WWYkGDDyAITuP/4E8OkNDsGYkHu&#10;rINgGm7Av7//GNjZmIk2gOHff1QDwBxmJgZSAZoBjJQZwEqRC4BBzEqCC/6hh8H/&#10;//8YmJmIN+D/fyyB6NewCZwO/qORMIBIIUA2IyOmAUsrvIh2QUzndjBNeqjhiwWY&#10;qWQbsKTccwC9oKIkTJIXQOqpAgBzFjJ6SnHW0gAAAABJRU5ErkJggg==" xlink:actuate="onLoad"/>
<text x="304" font-size="9" y="24" clip-path="url(#clipPath14)" stroke="none" xml:space="preserve">OutputHandler</text>
<line clip-path="url(#clipPath15)" fill="none" x1="276" x2="376" y1="30" y2="30"/>
<image width="16" xlink:show="embed" xlink:type="simple" clip-path="url(#clipPath16)" preserveAspectRatio="none" height="16" x="282" y="55" font-size="9" xlink:href="data:image/png;base64,iVBORw0KGgoAAAANSUhEUgAAABAAAAAQCAYAAAAf8/9hAAACM0lEQVR42sVTX0hT&#10;URz+7p3OCIqkaMLq0R6CCIRMaCMyr9ushkT17Fq9RNk/iJBk5z5s+BAhBQYh6Hyp&#10;B5W0NufcbCuNFcToIQrxz5g0IsVE5u52d+89HScMYw56CPo9nHN+/L7z8fGd7wD/&#10;u3TlBgIJ0nmlmljb3GQ2OiCWw/FbmyYxQGG+SzfOE+HXePfkNgLhwc3hiZvUSsK0&#10;rAKLK0gnwq8w+fA6vF950v/gCnZWVaGxoQ4jC3oy+agdnU/7IVzuIvNRb1ERV5Ri&#10;aqejXTcASsFxKjRaCbaggtfYtAIKVIbWcO5+DzD1mCtRQJMfxBczHGk1NSCfB3yx&#10;OGYWF/ElkcLBmhrICnCxswd0y+UigcUVonPqHuK+5kClTofI5zhjVNDr/4RjtUbM&#10;/kjhQLUBx48cRWhpB2l2uslcZNPYgonjzDDP1TZsqFxeyUHTFPSNxRH1nMez8Rh4&#10;lcP31RwUlcLjdCAYfPnnK9iEs+joHUBiOYOVjASOee04U4dTHUNw2uqh8TqsrctI&#10;/FpnuD4IFjtKTCwUM9JxoRW8wnjlFGOn0BiE0xug6vTwDg5Bm+7mtg+S+Ra1t7RA&#10;zgGSKiNHdyPNVbJ9FyRNRUZWcfhQLb7l9xEkY2JJkMwnGzHq92E1l8XImA8/M2ms&#10;ScCSlMWwP4h0VsJwwI/TTbbtg5R8+1ysv3SPTE9FCk+VpPvJXqMRHyOsf9/NLagG&#10;Igh2hFwC91efxOp6Q2G6Q5vF0vj+0/oNRdDxkTDUjqQAAAAASUVORK5CYII=" xlink:actuate="onLoad"/>
<text x="301" font-size="9" y="66" clip-path="url(#clipPath17)" stroke="none" xml:space="preserve"> + create()</text>
<image width="16" xlink:show="embed" xlink:type="simple" clip-path="url(#clipPath18)" preserveAspectRatio="none" height="16" x="282" y="71" font-size="9" xlink:href="data:image/png;base64,iVBORw0KGgoAAAANSUhEUgAAABAAAAAQCAYAAAAf8/9hAAACM0lEQVR42sVTX0hT&#10;URz+7p3OCIqkaMLq0R6CCIRMaCMyr9ushkT17Fq9RNk/iJBk5z5s+BAhBQYh6Hyp&#10;B5W0NufcbCuNFcToIQrxz5g0IsVE5u52d+89HScMYw56CPo9nHN+/L7z8fGd7wD/&#10;u3TlBgIJ0nmlmljb3GQ2OiCWw/FbmyYxQGG+SzfOE+HXePfkNgLhwc3hiZvUSsK0&#10;rAKLK0gnwq8w+fA6vF950v/gCnZWVaGxoQ4jC3oy+agdnU/7IVzuIvNRb1ERV5Ri&#10;aqejXTcASsFxKjRaCbaggtfYtAIKVIbWcO5+DzD1mCtRQJMfxBczHGk1NSCfB3yx&#10;OGYWF/ElkcLBmhrICnCxswd0y+UigcUVonPqHuK+5kClTofI5zhjVNDr/4RjtUbM&#10;/kjhQLUBx48cRWhpB2l2uslcZNPYgonjzDDP1TZsqFxeyUHTFPSNxRH1nMez8Rh4&#10;lcP31RwUlcLjdCAYfPnnK9iEs+joHUBiOYOVjASOee04U4dTHUNw2uqh8TqsrctI&#10;/FpnuD4IFjtKTCwUM9JxoRW8wnjlFGOn0BiE0xug6vTwDg5Bm+7mtg+S+Ra1t7RA&#10;zgGSKiNHdyPNVbJ9FyRNRUZWcfhQLb7l9xEkY2JJkMwnGzHq92E1l8XImA8/M2ms&#10;ScCSlMWwP4h0VsJwwI/TTbbtg5R8+1ysv3SPTE9FCk+VpPvJXqMRHyOsf9/NLagG&#10;Igh2hFwC91efxOp6Q2G6Q5vF0vj+0/oNRdDxkTDUjqQAAAAASUVORK5CYII=" xlink:actuate="onLoad"/>
<text x="301" font-size="9" y="82" clip-path="url(#clipPath19)" stroke="none" xml:space="preserve"> + update()</text>
<line clip-path="url(#clipPath20)" fill="none" x1="276" x2="376" y1="53" y2="53"/>
<line clip-path="url(#clipPath21)" fill="none" x1="276" x2="376" y1="99" y2="99"/>
<rect x="276" y="10" clip-path="url(#clipPath22)" fill="none" width="99" rx="0" ry="0" height="111"/>
<rect x="196" y="182" clip-path="url(#clipPath23)" fill="url(#linearGradient3)" width="100" height="100" stroke="none"/>
<image width="16" xlink:show="embed" xlink:type="simple" clip-path="url(#clipPath24)" preserveAspectRatio="none" height="16" x="214" y="185" font-size="9" xlink:href="data:image/png;base64,iVBORw0KGgoAAAANSUhEUgAAABAAAAAQCAYAAAAf8/9hAAAAr0lEQVR42mNkgIKC&#10;BUf+P3jyCchiBOL/QMgIYTFCREDg/38GOFCU4WWYkGDDyAITuP/4E8OkNDsGYkHu&#10;rINgGm7Av7//GNjZmIk2gOHff1QDwBxmJgZSAZoBjJQZwEqRC4BBzEqCC/6hh8H/&#10;//8YmJmIN+D/fyyB6NewCZwO/qORMIBIIUA2IyOmAUsrvIh2QUzndjBNeqjhiwWY&#10;qWQbsKTccwC9oKIkTJIXQOqpAgBzFjJ6SnHW0gAAAABJRU5ErkJggg==" xlink:actuate="onLoad"/>
<text x="233" font-size="9" y="196" clip-path="url(#clipPath25)" stroke="none" xml:space="preserve">SimOutput</text>
<line clip-path="url(#clipPath26)" fill="none" x1="196" x2="296" y1="202" y2="202"/>
<line clip-path="url(#clipPath27)" fill="none" x1="196" x2="296" y1="229" y2="229"/>
<line clip-path="url(#clipPath28)" fill="none" x1="196" x2="296" y1="256" y2="256"/>
<rect x="196" y="182" clip-path="url(#clipPath29)" fill="none" width="99" rx="0" ry="0" height="99"/>
<rect x="36" y="342" clip-path="url(#clipPath30)" fill="url(#linearGradient4)" width="100" height="155" stroke="none"/>
<text x="60" font-size="9" y="354" clip-path="url(#clipPath31)" stroke="none" xml:space="preserve">«Interface»</text>
<image width="16" xlink:show="embed" xlink:type="simple" clip-path="url(#clipPath32)" preserveAspectRatio="none" height="16" x="62" y="357" font-size="9" xlink:href="data:image/png;base64,iVBORw0KGgoAAAANSUhEUgAAABAAAAAQCAYAAAAf8/9hAAABHElEQVR42mNkgIKC&#10;BUf+P3jyCchiBOL/QMgIYTFCREDg/38GOFCU4WWYkGDDyAITuP/4E8OkNDsGYkHu&#10;rINgGm7Av7//GNjZmMHsEzceMVhoyDFYVK6EazjRHg4Xh2iAOIcJ2VQWZiawooKF&#10;x8HsM12RYHEQDeKDxEHyIDYMoBnACFZ0oTcKzAZhmDgIg8QhhjNiN4AVaPKEeEsG&#10;g+JlYDYr1CYYGyQOkmfF6gJgELMCTfYyUYEqYmTQLlgClgLRID5IHCQPYv+DhgEL&#10;Qv8/BmYmiNN8zVTB9N2pcSghDxOHqEczAAT8GjaB08F/NBIGECkEyGZkxDRgaYUX&#10;0ekgpnM7ZiCSA1iwmUq2AUvKPQfQCypKwiR5AaSeKgAABcZdRqE6GaQAAAAASUVO&#10;RK5CYII=" xlink:actuate="onLoad"/>
<text x="81" font-size="9" y="368" clip-path="url(#clipPath33)" stroke="none" xml:space="preserve">Output</text>
<line clip-path="url(#clipPath34)" fill="none" x1="36" x2="136" y1="374" y2="374"/>
<image width="16" xlink:show="embed" xlink:type="simple" clip-path="url(#clipPath35)" preserveAspectRatio="none" height="16" x="42" y="399" font-size="9" xlink:href="data:image/png;base64,iVBORw0KGgoAAAANSUhEUgAAABAAAAAQCAYAAAAf8/9hAAACM0lEQVR42sVTX0hT&#10;URz+7p3OCIqkaMLq0R6CCIRMaCMyr9ushkT17Fq9RNk/iJBk5z5s+BAhBQYh6Hyp&#10;B5W0NufcbCuNFcToIQrxz5g0IsVE5u52d+89HScMYw56CPo9nHN+/L7z8fGd7wD/&#10;u3TlBgIJ0nmlmljb3GQ2OiCWw/FbmyYxQGG+SzfOE+HXePfkNgLhwc3hiZvUSsK0&#10;rAKLK0gnwq8w+fA6vF950v/gCnZWVaGxoQ4jC3oy+agdnU/7IVzuIvNRb1ERV5Ri&#10;aqejXTcASsFxKjRaCbaggtfYtAIKVIbWcO5+DzD1mCtRQJMfxBczHGk1NSCfB3yx&#10;OGYWF/ElkcLBmhrICnCxswd0y+UigcUVonPqHuK+5kClTofI5zhjVNDr/4RjtUbM&#10;/kjhQLUBx48cRWhpB2l2uslcZNPYgonjzDDP1TZsqFxeyUHTFPSNxRH1nMez8Rh4&#10;lcP31RwUlcLjdCAYfPnnK9iEs+joHUBiOYOVjASOee04U4dTHUNw2uqh8TqsrctI&#10;/FpnuD4IFjtKTCwUM9JxoRW8wnjlFGOn0BiE0xug6vTwDg5Bm+7mtg+S+Ra1t7RA&#10;zgGSKiNHdyPNVbJ9FyRNRUZWcfhQLb7l9xEkY2JJkMwnGzHq92E1l8XImA8/M2ms&#10;ScCSlMWwP4h0VsJwwI/TTbbtg5R8+1ysv3SPTE9FCk+VpPvJXqMRHyOsf9/NLagG&#10;Igh2hFwC91efxOp6Q2G6Q5vF0vj+0/oNRdDxkTDUjqQAAAAASUVORK5CYII=" xlink:actuate="onLoad"/>
<text x="61" font-size="9" y="410" clip-path="url(#clipPath36)" stroke="none" xml:space="preserve"> + set()</text>
<image width="16" xlink:show="embed" xlink:type="simple" clip-path="url(#clipPath37)" preserveAspectRatio="none" height="16" x="42" y="415" font-size="9" xlink:href="data:image/png;base64,iVBORw0KGgoAAAANSUhEUgAAABAAAAAQCAYAAAAf8/9hAAACM0lEQVR42sVTX0hT&#10;URz+7p3OCIqkaMLq0R6CCIRMaCMyr9ushkT17Fq9RNk/iJBk5z5s+BAhBQYh6Hyp&#10;B5W0NufcbCuNFcToIQrxz5g0IsVE5u52d+89HScMYw56CPo9nHN+/L7z8fGd7wD/&#10;u3TlBgIJ0nmlmljb3GQ2OiCWw/FbmyYxQGG+SzfOE+HXePfkNgLhwc3hiZvUSsK0&#10;rAKLK0gnwq8w+fA6vF950v/gCnZWVaGxoQ4jC3oy+agdnU/7IVzuIvNRb1ERV5Ri&#10;aqejXTcASsFxKjRaCbaggtfYtAIKVIbWcO5+DzD1mCtRQJMfxBczHGk1NSCfB3yx&#10;OGYWF/ElkcLBmhrICnCxswd0y+UigcUVonPqHuK+5kClTofI5zhjVNDr/4RjtUbM&#10;/kjhQLUBx48cRWhpB2l2uslcZNPYgonjzDDP1TZsqFxeyUHTFPSNxRH1nMez8Rh4&#10;lcP31RwUlcLjdCAYfPnnK9iEs+joHUBiOYOVjASOee04U4dTHUNw2uqh8TqsrctI&#10;/FpnuD4IFjtKTCwUM9JxoRW8wnjlFGOn0BiE0xug6vTwDg5Bm+7mtg+S+Ra1t7RA&#10;zgGSKiNHdyPNVbJ9FyRNRUZWcfhQLb7l9xEkY2JJkMwnGzHq92E1l8XImA8/M2ms&#10;ScCSlMWwP4h0VsJwwI/TTbbtg5R8+1ysv3SPTE9FCk+VpPvJXqMRHyOsf9/NLagG&#10;Igh2hFwC91efxOp6Q2G6Q5vF0vj+0/oNRdDxkTDUjqQAAAAASUVORK5CYII=" xlink:actuate="onLoad"/>
<text x="61" font-size="9" y="426" clip-path="url(#clipPath38)" stroke="none" xml:space="preserve"> + reset()</text>
<image width="16" xlink:show="embed" xlink:type="simple" clip-path="url(#clipPath39)" preserveAspectRatio="none" height="16" x="42" y="431" font-size="9" xlink:href="data:image/png;base64,iVBORw0KGgoAAAANSUhEUgAAABAAAAAQCAYAAAAf8/9hAAACM0lEQVR42sVTX0hT&#10;URz+7p3OCIqkaMLq0R6CCIRMaCMyr9ushkT17Fq9RNk/iJBk5z5s+BAhBQYh6Hyp&#10;B5W0NufcbCuNFcToIQrxz5g0IsVE5u52d+89HScMYw56CPo9nHN+/L7z8fGd7wD/&#10;u3TlBgIJ0nmlmljb3GQ2OiCWw/FbmyYxQGG+SzfOE+HXePfkNgLhwc3hiZvUSsK0&#10;rAKLK0gnwq8w+fA6vF950v/gCnZWVaGxoQ4jC3oy+agdnU/7IVzuIvNRb1ERV5Ri&#10;aqejXTcASsFxKjRaCbaggtfYtAIKVIbWcO5+DzD1mCtRQJMfxBczHGk1NSCfB3yx&#10;OGYWF/ElkcLBmhrICnCxswd0y+UigcUVonPqHuK+5kClTofI5zhjVNDr/4RjtUbM&#10;/kjhQLUBx48cRWhpB2l2uslcZNPYgonjzDDP1TZsqFxeyUHTFPSNxRH1nMez8Rh4&#10;lcP31RwUlcLjdCAYfPnnK9iEs+joHUBiOYOVjASOee04U4dTHUNw2uqh8TqsrctI&#10;/FpnuD4IFjtKTCwUM9JxoRW8wnjlFGOn0BiE0xug6vTwDg5Bm+7mtg+S+Ra1t7RA&#10;zgGSKiNHdyPNVbJ9FyRNRUZWcfhQLb7l9xEkY2JJkMwnGzHq92E1l8XImA8/M2ms&#10;ScCSlMWwP4h0VsJwwI/TTbbtg5R8+1ysv3SPTE9FCk+VpPvJXqMRHyOsf9/NLagG&#10;Igh2hFwC91efxOp6Q2G6Q5vF0vj+0/oNRdDxkTDUjqQAAAAASUVORK5CYII=" xlink:actuate="onLoad"/>
<text x="61" font-size="9" y="442" clip-path="url(#clipPath40)" stroke="none" xml:space="preserve"> + write()</text>
<image width="16" xlink:show="embed" xlink:type="simple" clip-path="url(#clipPath41)" preserveAspectRatio="none" height="16" x="42" y="447" font-size="9" xlink:href="data:image/png;base64,iVBORw0KGgoAAAANSUhEUgAAABAAAAAQCAYAAAAf8/9hAAACM0lEQVR42sVTX0hT&#10;URz+7p3OCIqkaMLq0R6CCIRMaCMyr9ushkT17Fq9RNk/iJBk5z5s+BAhBQYh6Hyp&#10;B5W0NufcbCuNFcToIQrxz5g0IsVE5u52d+89HScMYw56CPo9nHN+/L7z8fGd7wD/&#10;u3TlBgIJ0nmlmljb3GQ2OiCWw/FbmyYxQGG+SzfOE+HXePfkNgLhwc3hiZvUSsK0&#10;rAKLK0gnwq8w+fA6vF950v/gCnZWVaGxoQ4jC3oy+agdnU/7IVzuIvNRb1ERV5Ri&#10;aqejXTcASsFxKjRaCbaggtfYtAIKVIbWcO5+DzD1mCtRQJMfxBczHGk1NSCfB3yx&#10;OGYWF/ElkcLBmhrICnCxswd0y+UigcUVonPqHuK+5kClTofI5zhjVNDr/4RjtUbM&#10;/kjhQLUBx48cRWhpB2l2uslcZNPYgonjzDDP1TZsqFxeyUHTFPSNxRH1nMez8Rh4&#10;lcP31RwUlcLjdCAYfPnnK9iEs+joHUBiOYOVjASOee04U4dTHUNw2uqh8TqsrctI&#10;/FpnuD4IFjtKTCwUM9JxoRW8wnjlFGOn0BiE0xug6vTwDg5Bm+7mtg+S+Ra1t7RA&#10;zgGSKiNHdyPNVbJ9FyRNRUZWcfhQLb7l9xEkY2JJkMwnGzHq92E1l8XImA8/M2ms&#10;ScCSlMWwP4h0VsJwwI/TTbbtg5R8+1ysv3SPTE9FCk+VpPvJXqMRHyOsf9/NLagG&#10;Igh2hFwC91efxOp6Q2G6Q5vF0vj+0/oNRdDxkTDUjqQAAAAASUVORK5CYII=" xlink:actuate="onLoad"/>
<text x="61" font-size="9" y="458" clip-path="url(#clipPath42)" stroke="none" xml:space="preserve"> + get()</text>
<line clip-path="url(#clipPath43)" fill="none" x1="36" x2="136" y1="397" y2="397"/>
<line clip-path="url(#clipPath44)" fill="none" x1="36" x2="136" y1="475" y2="475"/>
<rect x="36" y="342" clip-path="url(#clipPath45)" fill="none" width="99" rx="0" ry="0" height="154"/>
<rect x="356" y="182" clip-path="url(#clipPath46)" fill="url(#linearGradient5)" width="100" height="100" stroke="none"/>
<text x="380" font-size="9" y="194" clip-path="url(#clipPath47)" stroke="none" xml:space="preserve">«Interface»</text>
<image width="16" xlink:show="embed" xlink:type="simple" clip-path="url(#clipPath48)" preserveAspectRatio="none" height="16" x="377" y="197" font-size="9" xlink:href="data:image/png;base64,iVBORw0KGgoAAAANSUhEUgAAABAAAAAQCAYAAAAf8/9hAAABHElEQVR42mNkgIKC&#10;BUf+P3jyCchiBOL/QMgIYTFCREDg/38GOFCU4WWYkGDDyAITuP/4E8OkNDsGYkHu&#10;rINgGm7Av7//GNjZmMHsEzceMVhoyDFYVK6EazjRHg4Xh2iAOIcJ2VQWZiawooKF&#10;x8HsM12RYHEQDeKDxEHyIDYMoBnACFZ0oTcKzAZhmDgIg8QhhjNiN4AVaPKEeEsG&#10;g+JlYDYr1CYYGyQOkmfF6gJgELMCTfYyUYEqYmTQLlgClgLRID5IHCQPYv+DhgEL&#10;Qv8/BmYmiNN8zVTB9N2pcSghDxOHqEczAAT8GjaB08F/NBIGECkEyGZkxDRgaYUX&#10;0ekgpnM7ZiCSA1iwmUq2AUvKPQfQCypKwiR5AaSeKgAABcZdRqE6GaQAAAAASUVO&#10;RK5CYII=" xlink:actuate="onLoad"/>
<text x="396" font-size="9" y="208" clip-path="url(#clipPath49)" stroke="none" xml:space="preserve">Observer</text>
<line clip-path="url(#clipPath50)" fill="none" x1="356" x2="456" y1="214" y2="214"/>
<line clip-path="url(#clipPath51)" fill="none" x1="356" x2="456" y1="237" y2="237"/>
<line clip-path="url(#clipPath52)" fill="none" x1="356" x2="456" y1="260" y2="260"/>
<rect x="356" y="182" clip-path="url(#clipPath53)" fill="none" width="99" rx="0" ry="0" height="99"/>
<rect x="196" y="342" clip-path="url(#clipPath54)" fill="url(#linearGradient6)" width="100" height="100" stroke="none"/>
<image width="16" xlink:show="embed" xlink:type="simple" clip-path="url(#clipPath55)" preserveAspectRatio="none" height="16" x="212" y="345" font-size="9" xlink:href="data:image/png;base64,iVBORw0KGgoAAAANSUhEUgAAABAAAAAQCAYAAAAf8/9hAAAAr0lEQVR42mNkgIKC&#10;BUf+P3jyCchiBOL/QMgIYTFCREDg/38GOFCU4WWYkGDDyAITuP/4E8OkNDsGYkHu&#10;rINgGm7Av7//GNjZmIk2gOHff1QDwBxmJgZSAZoBjJQZwEqRC4BBzEqCC/6hh8H/&#10;//8YmJmIN+D/fyyB6NewCZwO/qORMIBIIUA2IyOmAUsrvIh2QUzndjBNeqjhiwWY&#10;qWQbsKTccwC9oKIkTJIXQOqpAgBzFjJ6SnHW0gAAAABJRU5ErkJggg==" xlink:actuate="onLoad"/>
<text x="231" font-size="9" y="356" clip-path="url(#clipPath56)" stroke="none" xml:space="preserve">Observable</text>
<line clip-path="url(#clipPath57)" fill="none" x1="196" x2="296" y1="362" y2="362"/>
<line clip-path="url(#clipPath58)" fill="none" x1="196" x2="296" y1="389" y2="389"/>
<line clip-path="url(#clipPath59)" fill="none" x1="196" x2="296" y1="416" y2="416"/>
<rect x="196" y="342" clip-path="url(#clipPath60)" fill="none" width="99" rx="0" ry="0" height="99"/>
<rect x="36" y="182" clip-path="url(#clipPath61)" fill="url(#linearGradient7)" width="100" height="100" stroke="none"/>
<image width="16" xlink:show="embed" xlink:type="simple" clip-path="url(#clipPath62)" preserveAspectRatio="none" height="16" x="45" y="185" font-size="9" xlink:href="data:image/png;base64,iVBORw0KGgoAAAANSUhEUgAAABAAAAAQCAYAAAAf8/9hAAAAr0lEQVR42mNkgIKC&#10;BUf+P3jyCchiBOL/QMgIYTFCREDg/38GOFCU4WWYkGDDyAITuP/4E8OkNDsGYkHu&#10;rINgGm7Av7//GNjZmIk2gOHff1QDwBxmJgZSAZoBjJQZwEqRC4BBzEqCC/6hh8H/&#10;//8YmJmIN+D/fyyB6NewCZwO/qORMIBIIUA2IyOmAUsrvIh2QUzndjBNeqjhiwWY&#10;qWQbsKTccwC9oKIkTJIXQOqpAgBzFjJ6SnHW0gAAAABJRU5ErkJggg==" xlink:actuate="onLoad"/>
<text x="64" font-size="9" y="196" clip-path="url(#clipPath63)" stroke="none" xml:space="preserve">DummyOutput</text>
<line clip-path="url(#clipPath64)" fill="none" x1="36" x2="136" y1="202" y2="202"/>
<line clip-path="url(#clipPath65)" fill="none" x1="36" x2="136" y1="229" y2="229"/>
<line clip-path="url(#clipPath66)" fill="none" x1="36" x2="136" y1="256" y2="256"/>
<rect x="36" y="182" clip-path="url(#clipPath67)" fill="none" width="99" rx="0" ry="0" height="99"/>
<line clip-path="url(#clipPath68)" fill="none" text-rendering="optimizeLegibility" x1="309" x2="244" y1="121" y2="181" stroke-dasharray="5,5,5,5,5,5,5,5,5,5"/>
<text x="249" font-size="9" y="144" clip-path="url(#clipPath69)" text-rendering="optimizeLegibility" stroke-dasharray="5,5,5,5,5,5,5,5,5,5" stroke="none" xml:space="preserve">creates</text>
<line clip-path="url(#clipPath70)" fill="none" text-rendering="optimizeLegibility" x1="252" x2="244" y1="167" y2="181"/>
<line clip-path="url(#clipPath70)" fill="none" text-rendering="optimizeLegibility" x1="244" x2="258" y1="181" y2="174"/>
<line clip-path="url(#clipPath68)" fill="none" text-rendering="optimizeLegibility" x1="245" x2="244" y1="281" y2="341"/>
</g>
<g stroke-linecap="butt" font-size="9" fill="white" text-rendering="optimizeLegibility" stroke="white" stroke-width="1.1">
<polygon clip-path="url(#clipPath71)" points=" 244 341 236 331 252 331" stroke="none"/>
<polygon fill="none" clip-path="url(#clipPath71)" points=" 244 341 236 331 252 331" stroke="black"/>
<line clip-path="url(#clipPath68)" fill="none" x1="80" x2="80" y1="121" y2="181" stroke-dasharray="5,5,5,5,5,5,5,5,5,5" stroke="black"/>
<text x="55" y="150" clip-path="url(#clipPath72)" fill="black" stroke-dasharray="5,5,5,5,5,5,5,5,5,5" stroke="none" xml:space="preserve">uses</text>
<line clip-path="url(#clipPath73)" fill="none" x1="75" x2="80" y1="166" y2="181" stroke="black"/>
<line clip-path="url(#clipPath73)" fill="none" x1="80" x2="85" y1="181" y2="166" stroke="black"/>
<line clip-path="url(#clipPath68)" fill="none" x1="341" x2="406" y1="121" y2="181" stroke-dasharray="5,5,5,5,5,5,5,5,5,5" stroke="black"/>
<polygon stroke-dasharray="5,5,5,5,5,5,5,5,5,5" clip-path="url(#clipPath74)" points=" 406 181 392 174 398 167" stroke="none"/>
<polygon fill="none" clip-path="url(#clipPath74)" points=" 406 181 392 174 398 167" stroke="black"/>
<line clip-path="url(#clipPath68)" fill="none" x1="221" x2="108" y1="281" y2="341" stroke-dasharray="5,5,5,5,5,5,5,5,5,5" stroke="black"/>
<polygon stroke-dasharray="5,5,5,5,5,5,5,5,5,5" clip-path="url(#clipPath75)" points=" 108 341 119 330 124 338" stroke="none"/>
<polygon fill="none" clip-path="url(#clipPath75)" points=" 108 341 119 330 124 338" stroke="black"/>
<line clip-path="url(#clipPath68)" fill="none" x1="84" x2="84" y1="281" y2="341" stroke-dasharray="5,5,5,5,5,5,5,5,5,5" stroke="black"/>
<polygon stroke-dasharray="5,5,5,5,5,5,5,5,5,5" clip-path="url(#clipPath76)" points=" 84 341 79 326 89 326" stroke="none"/>
<polygon fill="none" clip-path="url(#clipPath76)" points=" 84 341 79 326 89 326" stroke="black"/>
</g>
</g>
</svg>
